// Jest Snapshot v1, https://goo.gl/fbAQLP

exports[`rendering matches snapshot 1`] = `
<DocumentFragment>
  <div
    class="reset-request"
  >
    <div
      class="MuiGrid-root container MuiGrid-container MuiGrid-direction-xs-column MuiGrid-align-items-xs-center MuiGrid-justify-xs-center"
    >
      <div
        class="MuiBox-root MuiBox-root-24 form-box"
      >
        <div
          class="beneficent-panel"
        >
          <img
            alt="Beneficent Logo"
            class="beneficent-logo"
            src="beneficient-logo.png"
          />
        </div>
        <div
          class="form-panel"
          data-testid="form-panel"
        >
          <h3
            class="MuiTypography-root title MuiTypography-h3"
          >
            Send Password Reset
          </h3>
          <h6
            class="MuiTypography-root text MuiTypography-h6"
          >
            Enter your email below and we will help recover your account.
          </h6>
          <form
            class="form"
            data-testid="reset-request-form"
          >
            <div
              class="MuiFormControl-root MuiTextField-root email-request-field"
            >
              <div
                class="MuiInputBase-root MuiOutlinedInput-root MuiInputBase-formControl"
              >
                <input
                  aria-invalid="false"
                  class="MuiInputBase-input MuiOutlinedInput-input makeStyles-inputFont-22"
                  name="email"
                  placeholder="Email"
                  type="text"
                  value=""
                />
                <fieldset
                  aria-hidden="true"
                  class="PrivateNotchedOutline-root-25 MuiOutlinedInput-notchedOutline"
                  style="padding-left: 8px;"
                >
                  <legend
                    class="PrivateNotchedOutline-legend-26"
                    style="width: 0.01px;"
                  >
                    <span>
                      ​
                    </span>
                  </legend>
                </fieldset>
              </div>
            </div>
            <div
              class="button-group"
            >
              <button
                class="MuiButtonBase-root MuiButton-root MuiButton-outlined button MuiButton-outlinedPrimary Mui-disabled Mui-disabled"
                data-testid="submit-button"
                disabled=""
                tabindex="-1"
                type="submit"
              >
                <span
                  class="MuiButton-label"
                >
                  <span
                    class="MuiTypography-root MuiTypography-button"
                  >
                    Send
                  </span>
                </span>
              </button>
              <button
                class="MuiButtonBase-root MuiButton-root MuiButton-outlined button MuiButton-outlinedPrimary"
                tabindex="0"
                type="button"
              >
                <span
                  class="MuiButton-label"
                >
                  <span
                    class="MuiTypography-root MuiTypography-button"
                  >
                    Cancel
                  </span>
                </span>
                <span
                  class="MuiTouchRipple-root"
                />
              </button>
            </div>
          </form>
        </div>
      </div>
    </div>
  </div>
</DocumentFragment>
`;
